\relax 
\providecommand\hyper@newdestlabel[2]{}
\providecommand\HyperFirstAtBeginDocument{\AtBeginDocument}
\HyperFirstAtBeginDocument{\ifx\hyper@anchor\@undefined
\global\let\oldcontentsline\contentsline
\gdef\contentsline#1#2#3#4{\oldcontentsline{#1}{#2}{#3}}
\global\let\oldnewlabel\newlabel
\gdef\newlabel#1#2{\newlabelxx{#1}#2}
\gdef\newlabelxx#1#2#3#4#5#6{\oldnewlabel{#1}{{#2}{#3}}}
\AtEndDocument{\ifx\hyper@anchor\@undefined
\let\contentsline\oldcontentsline
\let\newlabel\oldnewlabel
\fi}
\fi}
\global\let\hyper@last\relax 
\gdef\HyperFirstAtBeginDocument#1{#1}
\providecommand\HyField@AuxAddToFields[1]{}
\providecommand\HyField@AuxAddToCoFields[2]{}
\@writefile{toc}{\contentsline {section}{\numberline {1}Introduction}{1}{section.1}}
\@writefile{toc}{\contentsline {subsection}{\numberline {1.1}Objectifs}{1}{subsection.1.1}}
\@writefile{toc}{\contentsline {subsection}{\numberline {1.2}Notations et d\IeC {\'e}finitions}{1}{subsection.1.2}}
\@writefile{toc}{\contentsline {section}{\numberline {2}Origine de l'\IeC {\'e}quation}{1}{section.2}}
\@writefile{toc}{\contentsline {subsection}{\numberline {2.1}Hypoth\IeC {\`e}ses du mod\IeC {\`e}le}{1}{subsection.2.1}}
\citation{ref0}
\@writefile{toc}{\contentsline {subsection}{\numberline {2.2}L'\IeC {\'e}quation due \IeC {\`a} Sivashinsky}{2}{subsection.2.2}}
\@writefile{toc}{\contentsline {section}{\numberline {3}Analyse de la dynamique de l'\IeC {\'e}quation}{3}{section.3}}
\citation{ref1}
\@writefile{toc}{\contentsline {section}{\numberline {4}Simulations num\IeC {\'e}rique}{4}{section.4}}
\@writefile{toc}{\contentsline {subsection}{\numberline {4.1}Explosion des solutions en temps fini}{4}{subsection.4.1}}
\@writefile{toc}{\contentsline {subsection}{\numberline {4.2}Stabilisation de la solution en cycle p\IeC {\'e}riodique}{5}{subsection.4.2}}
\citation{ref1}
\@writefile{toc}{\contentsline {subsection}{\numberline {4.3}Caract\IeC {\'e}risation du Tore attracteur}{7}{subsection.4.3}}
\@writefile{toc}{\contentsline {section}{\numberline {5}Au del\IeC {\`a} du mod\IeC {\`e}le de Kuramoto-Sivashinsky}{7}{section.5}}
\@writefile{toc}{\contentsline {section}{\numberline {6}Conclusion}{7}{section.6}}
\citation{ref2}
\citation{ref3}
\bibstyle{plain}
\bibdata{biblio}
